Climatology variable A
…
jens-daniel-mueller

2022-05-20

0dd6813

jens-daniel-mueller

2022-05-15

[1] "NorESM-OC1.2_3D_ALL_v20211125"
[1] "dissic" "no3"    "o2"     "po4"    "si"     "so"     "talk"   "thetao"
[1] "dissic_NorESM-OC1.2_A_1_gr_1980-2018_v20211125.nc"
# A tibble: 2,360,500 × 4
   dissic   lon   lat depth
    <dbl> <dbl> <dbl> <dbl>
 1   2.17  184. -78.5     0
 2   2.17  184. -78.5     0
 3   2.15  186. -78.5     0
 4   2.15  186. -78.5     0
 5   2.14  188. -78.5     0
 6   2.14  188. -78.5     0
 7   2.13  190. -78.5     0
 8   2.13  190. -78.5     0
 9   2.12  192. -78.5     0
10   2.12  192. -78.5     0
# … with 2,360,490 more rows
[1] "no3_NorESM-OC1.2_A_1_gr_1980-2018_v20211125.nc"
# A tibble: 2,360,500 × 4
      no3   lon   lat depth
    <dbl> <dbl> <dbl> <dbl>
 1 0.0199  184. -78.5     0
 2 0.0198  184. -78.5     0
 3 0.0201  186. -78.5     0
 4 0.0205  186. -78.5     0
 5 0.0208  188. -78.5     0
 6 0.0210  188. -78.5     0
 7 0.0210  190. -78.5     0
 8 0.0210  190. -78.5     0
 9 0.0209  192. -78.5     0
10 0.0208  192. -78.5     0
# … with 2,360,490 more rows
[1] "o2_NorESM-OC1.2_A_1_gr_1980-2018_v20211125.nc"
# A tibble: 2,360,500 × 4
      o2   lon   lat depth
   <dbl> <dbl> <dbl> <dbl>
 1 0.379  184. -78.5     0
 2 0.381  184. -78.5     0
 3 0.378  186. -78.5     0
 4 0.375  186. -78.5     0
 5 0.371  188. -78.5     0
 6 0.368  188. -78.5     0
 7 0.367  190. -78.5     0
 8 0.366  190. -78.5     0
 9 0.365  192. -78.5     0
10 0.364  192. -78.5     0
# … with 2,360,490 more rows
[1] "po4_NorESM-OC1.2_A_1_gr_1980-2018_v20211125.nc"
# A tibble: 2,360,500 × 4
       po4   lon   lat depth
     <dbl> <dbl> <dbl> <dbl>
 1 0.00135  184. -78.5     0
 2 0.00135  184. -78.5     0
 3 0.00136  186. -78.5     0
 4 0.00139  186. -78.5     0
 5 0.00141  188. -78.5     0
 6 0.00142  188. -78.5     0
 7 0.00142  190. -78.5     0
 8 0.00142  190. -78.5     0
 9 0.00141  192. -78.5     0
10 0.00140  192. -78.5     0
# … with 2,360,490 more rows
[1] "si_NorESM-OC1.2_A_1_gr_1980-2018_v20211125.nc"
# A tibble: 2,360,500 × 4
       si   lon   lat depth
    <dbl> <dbl> <dbl> <dbl>
 1 0.0352  184. -78.5     0
 2 0.0354  184. -78.5     0
 3 0.0355  186. -78.5     0
 4 0.0355  186. -78.5     0
 5 0.0354  188. -78.5     0
 6 0.0353  188. -78.5     0
 7 0.0352  190. -78.5     0
 8 0.0351  190. -78.5     0
 9 0.0350  192. -78.5     0
10 0.0348  192. -78.5     0
# … with 2,360,490 more rows
[1] "so_NorESM-OC1.2_A_1_gr_1980-2018_v20211125.nc"
# A tibble: 2,360,500 × 4
      so   lon   lat depth
   <dbl> <dbl> <dbl> <dbl>
 1  32.8  184. -78.5     0
 2  32.8  184. -78.5     0
 3  32.7  186. -78.5     0
 4  32.7  186. -78.5     0
 5  32.6  188. -78.5     0
 6  32.6  188. -78.5     0
 7  32.5  190. -78.5     0
 8  32.5  190. -78.5     0
 9  32.5  192. -78.5     0
10  32.4  192. -78.5     0
# … with 2,360,490 more rows
[1] "talk_NorESM-OC1.2_A_1_gr_1980-2018_v20211125.nc"
# A tibble: 2,360,500 × 4
    talk   lon   lat depth
   <dbl> <dbl> <dbl> <dbl>
 1  2.31  184. -78.5     0
 2  2.30  184. -78.5     0
 3  2.28  186. -78.5     0
 4  2.27  186. -78.5     0
 5  2.26  188. -78.5     0
 6  2.26  188. -78.5     0
 7  2.25  190. -78.5     0
 8  2.24  190. -78.5     0
 9  2.24  192. -78.5     0
10  2.23  192. -78.5     0
# … with 2,360,490 more rows
[1] "thetao_NorESM-OC1.2_A_1_gr_1980-2018_v20211125.nc"
# A tibble: 2,360,500 × 4
   thetao   lon   lat depth
    <dbl> <dbl> <dbl> <dbl>
 1  -1.17  184. -78.5     0
 2  -1.21  184. -78.5     0
 3  -1.34  186. -78.5     0
 4  -1.43  186. -78.5     0
 5  -1.48  188. -78.5     0
 6  -1.52  188. -78.5     0
 7  -1.56  190. -78.5     0
 8  -1.59  190. -78.5     0
 9  -1.62  192. -78.5     0
10  -1.64  192. -78.5     0
# … with 2,360,490 more rows
…
